<?xml version="1.0" encoding="iso-8859-1"?>
<!-- Generator: Adobe Illustrator 18.1.1, SVG Export Plug-In . SVG Version: 6.00 Build 0)  -->
<svg version="1.1" id="Layer_1" xmlns="http://www.w3.org/2000/svg" xmlns:xlink="http://www.w3.org/1999/xlink" x="0px" y="0px"
	 viewBox="0 0 46 60" style="enable-background:new 0 0 46 60;" xml:space="preserve">
<g>
	<path style="fill:#9CA6B6;" d="M32.878,15.225c-2.823-2.776-6.529-4.207-10.452-4.06c-7.522,0.306-13.656,6.812-13.68,14.518
		c-0.012,3.412,1.16,6.739,3.301,9.356c3.085,3.791,4.783,8.574,4.783,13.478c0,0-0.323,2.25,1.243,2.25h9.854
		c1.602,0,1.244-2.25,1.244-2.25c0-4.794,1.722-9.54,4.987-13.723c2.021-2.605,3.097-5.736,3.097-9.062
		C37.254,21.732,35.7,17.99,32.878,15.225L32.878,15.225z M32.208,33.204c-3.552,4.55-5.453,9.735-5.525,15.019h-7.366
		c-0.072-5.394-1.961-10.641-5.357-14.812c-1.758-2.165-2.726-4.904-2.715-7.717c0.024-6.36,5.082-11.729,11.289-11.986
		c3.241-0.122,6.302,1.064,8.623,3.351c2.331,2.287,3.611,5.369,3.611,8.672C34.755,28.484,33.882,31.064,32.208,33.204
		L32.208,33.204z M32.208,33.204"/>
	<path style="fill:#9CA6B6;" d="M39.407,6.872c-0.49-0.502-1.28-0.502-1.758,0l-3.037,3.107c-0.49,0.501-0.49,1.308,0,1.798
		c0.49,0.489,1.28,0.502,1.758,0l3.037-3.107C39.897,8.181,39.897,7.373,39.407,6.872L39.407,6.872z M39.407,6.872"/>
	<path style="fill:#9CA6B6;" d="M27.975,52.504h-9.949c-0.694,0-1.244,0.575-1.244,1.271c0,0.71,0.562,1.272,1.244,1.272h9.949
		c0.694,0,1.244-0.575,1.244-1.272C29.219,53.079,28.656,52.504,27.975,52.504L27.975,52.504z M27.975,52.504"/>
	<path style="fill:#9CA6B6;" d="M26.098,57.299h-6.183c-0.693,0-1.244,0.575-1.244,1.272c0,0.709,0.562,1.272,1.244,1.272h6.183
		c0.693,0,1.243-0.575,1.243-1.272C27.341,57.873,26.779,57.299,26.098,57.299L26.098,57.299z M26.098,57.299"/>
	<path style="fill:#9CA6B6;" d="M23,6.86c0.694,0,1.244-0.574,1.244-1.272V1.197c0-0.709-0.562-1.272-1.244-1.272
		c-0.681,0-1.244,0.575-1.244,1.272v4.391C21.756,6.297,22.306,6.86,23,6.86L23,6.86z M23,6.86"/>
	<path style="fill:#9CA6B6;" d="M11.389,11.789c0.49-0.502,0.49-1.309,0-1.798L8.351,6.884c-0.49-0.502-1.279-0.502-1.758,0
		c-0.479,0.502-0.49,1.308,0,1.798l3.038,3.107C10.121,12.278,10.91,12.278,11.389,11.789L11.389,11.789z M11.389,11.789"/>
	<path style="fill:#9CA6B6;" d="M44.955,22.38h-4.293c-0.694,0-1.244,0.575-1.244,1.272c0,0.698,0.562,1.272,1.244,1.272h4.293
		c0.694,0,1.244-0.575,1.244-1.272C46.199,22.955,45.637,22.38,44.955,22.38L44.955,22.38z M44.955,22.38"/>
	<path style="fill:#9CA6B6;" d="M5.338,22.38H1.045c-0.694,0-1.244,0.575-1.244,1.272c0,0.698,0.562,1.272,1.244,1.272h4.293
		c0.694,0,1.244-0.575,1.244-1.272C6.581,22.955,6.031,22.38,5.338,22.38L5.338,22.38z M5.338,22.38"/>
</g>
</svg>
