<?xml version="1.0" encoding="iso-8859-1"?>
<!-- Generator: Adobe Illustrator 17.1.0, SVG Export Plug-In . SVG Version: 6.00 Build 0)  -->
<!DOCTYPE svg PUBLIC "-//W3C//DTD SVG 1.1//EN" "http://www.w3.org/Graphics/SVG/1.1/DTD/svg11.dtd">
<svg version="1.1" id="Layer_1" xmlns="http://www.w3.org/2000/svg" xmlns:xlink="http://www.w3.org/1999/xlink" x="0px" y="0px"
	 viewBox="0 0 16.604 16.604" style="enable-background:new 0 0 16.604 16.604;" xml:space="preserve">
<path style="fill:#111927;" d="M16.604,15.896l-5.173-5.173C12.406,9.586,13,8.112,13,6.5C13,2.916,10.084,0,6.5,0
	C4.764,0,3.131,0.676,1.902,1.903C0.675,3.131-0.001,4.764,0,6.5C0,10.084,2.916,13,6.5,13c1.612,0,3.087-0.594,4.224-1.569
	l5.173,5.173L16.604,15.896z M6.5,12C3.468,12,1,9.533,1,6.5C0.999,5.03,1.571,3.649,2.61,2.611C3.648,1.572,5.03,1,6.5,1
	C9.532,1,12,3.467,12,6.5C12,9.532,9.532,12,6.5,12"/>
</svg>
